<?xml version="1.0" encoding="utf-8"?>
<!-- Generator: Adobe Illustrator 19.2.1, SVG Export Plug-In . SVG Version: 6.00 Build 0)  -->
<svg version="1.1" id="Слой_1" xmlns="http://www.w3.org/2000/svg" xmlns:xlink="http://www.w3.org/1999/xlink" x="0px" y="0px"
	 viewBox="0 0 223.5 136.6" style="enable-background:new 0 0 223.5 136.6;" xml:space="preserve">
<style type="text/css">
	.st0{fill:#524763;}
	.st1{fill:#FFE400;}
	.st2{font-family:'Baveuse';}
	.st3{font-size:37px;}
</style>
<g id="XMLID_1_">
	<g>
		<polygon class="st0" points="223.5,0 223.5,57.1 58.5,136.6 0,0 		"/>
	</g>
</g>
<text transform="matrix(0.8872 -0.4614 0.4614 0.8872 57.2021 117.9056)" class="st1 st2 st3">LogOut</text>
</svg>
